{
  "id": "14",
  "name": "ahsan",
  "joined": "020315",
  "points": "23",
  "offered": "2",
  "requests": "3",
  "img": "new_user.png",
  "addr": "wilhelm-raabe-str.2,67665",
  "city": "kaiserslautern"
}